{"count":31857,"next":"https://api.spaceflightnewsapi.net/v4/articles/?limit=10&offset=10","previous":null,"results":[{"id":35499,"title":"20 Years of Planning, Effort Ready to Culminate in Return to the Moon","authors":[{"name":"Emily B","socials":null}],"url":"https://www.spacescout.info/2026/01/20-years-of-planning-effort-ready-to-culminate-in-return-to-the-moon/","image_url":"https://i0.wp.com/www.spacescout.info/wp-content/uploads/2026/01/image-3.png","news_site":"Space Scout","summary":"The Artemis program, while relatively young, incorporates elements that have had long and winding development histories, which is reflected in the evolution of its earliest mission plans over time.","published_at":"2026-01-19T16:42:05Z","updated_at":"2026-01-19T16:50:18.102622Z","featured":false,"launches":[],"events":[]},{"id":35498,"title":"Rocket roll","authors":[{"name":"ESA","socials":null}],"url":"https://www.esa.int/ESA_Multimedia/Images/2026/01/Rocket_roll","image_url":"https://www.esa.int/var/esa/storage/images/esa_multimedia/images/2026/01/rocket_roll/27070907-1-eng-GB/Rocket_roll_card_full.jpg","news_site":"ESA","summary":"From the ESA Blogs.","published_at":"2026-01-19T14:00:00Z","updated_at":"2026-01-19T14:10:19.281559Z","featured":false,"launches":[],"events":[]},{"id":35497,"title":"NASA must act now to ensure U.S. leadership in space","authors":[{"name":"Walt Faulconer","socials":null}],"url":"https://spacenews.com/nasa-must-act-now-to-ensure-u-s-leadership-in-space/","image_url":"https://i0.wp.com/spacenews.com/wp-content/uploads/2026/01/art2-slscloseupvab.jpeg?fit=1024%2C899&ssl=1","news_site":"SpaceNews","summary":"\nJared Isaacman made something unmistakably clear during his confirmation hearing as NASA Administrator: time is not on America’s side. The United States is no longer alone in deep space ambition, and the race to return humans to the moon is strategic, geopolitical and urgent — not just symbolic. China has declared its intent with regards […]\nThe post NASA must act now to ensure U.S. leadership in space appeared first on SpaceNews.","published_at":"2026-01-19T14:00:00Z","updated_at":"2026-01-19T14:00:34.715514Z","featured":false,"launches":[],"events":[]},{"id":35496,"title":"Vega-C overview infographic","authors":[{"name":"ESA","socials":null}],"url":"https://www.esa.int/ESA_Multimedia/Images/2026/01/Vega-C_overview_infographic","image_url":"https://www.esa.int/var/esa/storage/images/esa_multimedia/images/2026/01/vega-c_overview_infographic/27070971-1-eng-GB/Vega-C_overview_infographic_card_full.png","news_site":"ESA","summary":"From the ESA Blogs.","published_at":"2026-01-19T13:35:00Z","updated_at":"2026-01-19T13:50:13.780800Z","featured":false,"launches":[],"events":[]},{"id":35495,"title":"Space Force ends ‘Resilient GPS’ satellite program","authors":[{"name":"Sandra Erwin","socials":null}],"url":"https://spacenews.com/space-force-ends-resilient-gps-satellite-program/","image_url":"https://i0.wp.com/spacenews.com/wp-content/uploads/2024/11/Astranis-Nexus-Satellite-Constellation.jpg-scaled.jpeg?fit=1024%2C576&ssl=1","news_site":"SpaceNews","summary":"\nWASHINGTON — The U.S. Space Force has ended an exploratory effort to add smaller, lower-cost navigation satellites to bolster the Global Positioning System, shelving a program that had been identified as a priority. The effort, known as Resilient GPS, or R-GPS, began in 2024 and funded three industry teams to develop designs and early prototypes […]\nThe post Space Force ends ‘Resilient GPS’ satellite program appeared first on SpaceNews.","published_at":"2026-01-19T13:00:00Z","updated_at":"2026-01-19T13:10:18.906311Z","featured":false,"launches":[],"events":[]},{"id":35494,"title":"Proba-3: our eyes on the Sun’s inner corona","authors":[{"name":"ESA","socials":null}],"url":"https://www.esa.int/ESA_Multimedia/Images/2026/01/Proba-3_our_eyes_on_the_Sun_s_inner_corona","image_url":"https://www.esa.int/var/esa/storage/images/esa_multimedia/images/2026/01/proba-3_our_eyes_on_the_sun_s_inner_corona/27070017-1-eng-GB/Proba-3_our_eyes_on_the_Sun_s_inner_corona_card_full.gif","news_site":"ESA","summary":"From the ESA Blogs.","published_at":"2026-01-19T10:50:00Z","updated_at":"2026-01-19T12:42:37.992914Z","featured":false,"launches":[{"launch_id":"2a780cb9-9bf9-4537-927e-389f1659a709","provider":"Launch Library 2"}],"events":[]},{"id":35493,"title":"The EGT Programme: your road to space","authors":[{"name":"ESA","socials":null}],"url":"https://www.esa.int/About_Us/Careers_at_ESA/The_EGT_Programme_your_road_to_space","image_url":"https://www.esa.int/var/esa/storage/images/esa_multimedia/images/2026/01/esa_graduate_trainee_programme_2026/27067804-1-eng-GB/ESA_Graduate_Trainee_Programme_2026_card_full.png","news_site":"ESA","summary":"Dreaming of a career in space? The 2026 ESA Graduate Trainee opportunities are launching soon! It’s time to polish up your CV, craft your motivation letter and get ready to reach for the stars.","published_at":"2026-01-19T10:00:00Z","updated_at":"2026-01-19T10:20:19.599580Z","featured":false,"launches":[],"events":[]},{"id":35479,"title":"Interstellar raises major Series F funding to expand launch and satellite business","authors":[{"name":"SpaceDaily","socials":null}],"url":"https://www.spacedaily.com/reports/Interstellar_raises_major_Series_F_funding_to_expand_launch_and_satellite_business_999.html","image_url":"https://www.spxdaily.com/images-bg/interstellar-technologies-first-launch-bg.jpg","news_site":"SpaceDaily","summary":"Tokyo, Japan (SPX) Jan 19, 2026\n\n\nInterstellar Technologies, a privately held Japanese space infrastructure company, has completed a Series F funding round totaling 20.1 billion JPY (approximately 129.7 million USD) through a third-party allotment of new shares to a group of domestic financial and strategic investors. \n\nThe company states that this latest round brings its cumulative funding to 44.6 billion JPY (about 287.7 m","published_at":"2026-01-19T09:56:59Z","updated_at":"2026-01-19T08:50:20.091811Z","featured":false,"launches":[],"events":[]},{"id":35481,"title":"Galactic Energy conducts sixth offshore Ceres 1 mission from Yellow Sea platform","authors":[{"name":"SpaceDaily","socials":null}],"url":"https://www.spacedaily.com/reports/Galactic_Energy_conducts_sixth_offshore_Ceres_1_mission_from_Yellow_Sea_platform_999.html","image_url":"https://www.spxdaily.com/images-bg/china-galactic-space-ceres-1-carrier-rocket-offshore-shandong-sea-launch-platform-bg.jpg","news_site":"SpaceDaily","summary":"Beijing, China (SPX) Jan 19, 2026\r\n\r\n\r\nGalactic Energy has carried out its sixth sea based mission of the Ceres 1 solid fuel launcher, adding four more spacecraft to the Tianqi commercial internet of things constellation. \r\n\r\nThe latest Ceres 1 lifted off at 4:10 a.m. local time from a mobile offshore platform positioned in the Yellow Sea off Shandong province in eastern China, placing its payload into low Earth orbit about 850 kil","published_at":"2026-01-19T09:56:59Z","updated_at":"2026-01-19T09:27:09.688547Z","featured":false,"launches":[{"launch_id":"ea2d97bc-a834-4904-b579-6a1e1f7a9c54","provider":"Launch Library 2"}],"events":[]},{"id":35480,"title":"China tests Long March 12B reusable first stage at Jiuquan","authors":[{"name":"SpaceDaily","socials":null}],"url":"https://www.spacedaily.com/reports/China_tests_Long_March_12B_reusable_first_stage_at_Jiuquan_999.html","image_url":"https://www.spxdaily.com/images-bg/china-space-long-march-12b-launch-pad-engine-test-bg.jpg","news_site":"SpaceDaily","summary":"Tokyo, Japan (SPX) Jan 19, 2026\r\n\r\n\r\nChina Aerospace Science and Technology Corp has carried out a static firing test of the first stage of its new Long March 12B reusable carrier rocket at the Jiuquan Satellite Launch Center in Northwest China. \r\n\r\nThe company said engines on the Long March 12B first stage were ignited on Friday afternoon and sustained combustion for a period while ground teams monitored performance and control","published_at":"2026-01-19T09:56:59Z","updated_at":"2026-01-19T09:26:06.393328Z","featured":false,"launches":[{"launch_id":"459225a2-dc1a-43d7-8c2c-78f9552b0a05","provider":"Launch Library 2"}],"events":[]}]}